0.27201793
0.1909014941
0.1554763801
0.1344762106
0.1201881781
0.1096612395
0.1014904443
0.09491049431
0.08946424275
0.08485956416
0.08089990178
0.07440254154
0.06925543463
0.06504759026
0.06152421891
0.05851785477
0.05473506313
0.0516025822
0.04815683391
0.04532079872
0.04293358708
0.04042086297
0.03791884205
0.03551543203
0.03325973925
0.03138617394
0.02943705546
0.02766364491
0.02605352279
0.02438860345
0.02292376611
0.02155547395
0.02023295958
0.01903235738
0.01786441271
0.01675797043
0.01575446316
0.01480071478
0.01390983585
0.01307157747
0.01228099269
0.01153597785
0.01084433128
0.01019399077
0.00958514865
0.009012596998
0.008473962044
0.007974917885
0.007506146482
0.007067962256
0.006658529347
0.006278477857
0.005922762361
0.005593489457
0.005288949715
0.005007702544
0.004749818198
0.004513653277
0.004300276292
0.00410887952
0.003939453383
0.003792340447
0.003667363853
0.003565093329
0.003485816709
0.003429929154
0.003397718681
0.003389461737
0.003405328405
0.003445362449
0.003509574183
0.003597922162
0.003710270631
0.00384665549
0.004007147097
0.004191882751
0.004401307707
0.004636010258
0.004896859072
0.005185048956
0.005501956341
0.00584943271
0.006229712692
0.006645372735
0.007099488577
0.007595708666
0.008138179058
0.008731825026
0.009382272089
0.01009597822
0.01088050885
